script_villo.R
…
arrange(min_distance, min_distance)

## # A tibble: 349 x 1
##    min_distance
##           <dbl>
##  1         83.7
##  2         83.7
##  3        128. 
##  4        128. 
##  5        143. 
##  6        143. 
##  7        147. 
##  8        147. 
##  9        188. 
## 10        188. 
## # ... with 339 more rows

arrange(min_distance, desc(min_distance))

## # A tibble: 349 x 1
##    min_distance
##           <dbl>
##  1         912.
##  2         855.
##  3         822.
##  4         786.
##  5         747.
##  6         740.
##  7         739.
##  8         713.
##  9         704.
## 10         699.
## # ... with 339 more rows
…
